…
    #>   X5 = col_character(),
    #>   X6 = col_character(),
    #>   X7 = col_character(),
    #>   X8 = col_character(),
    #>   X9 = col_character(),
    #>   X10 = col_character(),
    #>   X11 = col_character(),
    #>   X12 = col_character(),
    #>   X13 = col_character(),
    #>   X14 = col_character(),
    #>   X15 = col_character(),
    #>   X16 = col_logical(),
    #>   X17 = col_double()
    #> )
    #> # A tibble: 34 x 17
    #>    `#`   `generated from~ X3    X4    X5    X6    X7    X8    X9    X10  
    #>    <chr> <chr>            <chr> <chr> <chr> <chr> <chr> <chr> <chr> <chr>
    #>  1 <NA>  <NA>             <NA>  <NA>  <NA>  <NA>  <NA>  <NA>  <NA>  <NA> 
    #>  2 #     Farm Data Colle~ <NA>  <NA>  <NA>  <NA>  <NA>  <NA>  <NA>  <NA> 
    #>  3 <NA>  <NA>             <NA>  <NA>  <NA>  <NA>  <NA>  <NA>  <NA>  <NA> 
    #>  4 <NA>  NumOfFarms       13    <NA>  <NA>  <NA>  <NA>  <NA>  <NA>  <NA> 
    #>  5 <NA>  Name             IF-D4 IF-D5 IF-D7 IF-D~ IF-D~ IF-D~ IF-D~ IF-G~
    #>  6 <NA>  Farm_Type        5     5     5     5     5     5     5     6    
    #>  7 <NA>  Form_of_Organis~ 1     1     1     1     1     1     1     1    
    #>  8 <NA>  Weighting_Factor 147   218   59    320   73    156   92    393  
    #>  9 #     Weighting        147   218   59    320   73    156   92    393  
    #> 10 #     Number_of_farms  15    22    6     32    7     16    9     39   
    #> # ... with 24 more rows, and 7 more variables: X11 <chr>, X12 <chr>,
    #> #   X13 <chr>, X14 <chr>, X15 <chr>, X16 <lgl>, X17 <dbl>
…
